com\cy\work\connect\vo\enums\ReadRecordStatus.class
com\cy\work\connect\vo\enums\WCExceDepStatus.class
com\cy\work\connect\vo\WCSetGroup.class
com\cy\work\connect\vo\WCExecManagerSignInfoDetail.class
com\cy\work\connect\vo\converter\BpmStatusConverter.class
com\cy\work\connect\vo\converter\OtherBaseAccessViewPersonConverter.class
com\cy\work\connect\vo\converter\SignActionTypeConverter.class
com\cy\work\connect\vo\enums\WCReadReceiptStatus.class
com\cy\work\connect\vo\WCBaseDepAccessInfo.class
com\cy\work\connect\vo\converter\ReadRecordStatusConverter.class
com\cy\work\connect\vo\enums\InboxType.class
com\cy\work\connect\vo\SimpleDateFormatThreadSafe$1.class
com\cy\work\connect\vo\converter\to\CategoryTagTo.class
com\cy\work\connect\vo\WCAlert.class
com\cy\work\connect\vo\converter\UsersConverter.class
com\cy\work\connect\vo\enums\column\search\MemoColumn.class
com\cy\work\connect\vo\WCConfigTemplet.class
com\cy\work\connect\vo\converter\to\ReportPage.class
com\cy\work\connect\vo\SimpleDateFormatThreadSafe$4.class
com\cy\work\connect\vo\converter\ManagerSingInfoTypeController.class
com\cy\work\connect\vo\converter\ReadReceiptConverter.class
com\cy\work\connect\vo\converter\to\ExecDepRecordTo.class
com\cy\work\connect\vo\enums\TargetType.class
com\cy\work\connect\vo\converter\ExceDepCreateTypeConverter.class
com\cy\work\connect\vo\enums\WCAlertType.class
com\cy\work\connect\vo\converter\LimitBaseAccessViewDepConverter.class
com\cy\work\connect\vo\enums\WCStatus.class
com\cy\work\connect\vo\converter\to\LimitBaseAccessViewDep.class
com\cy\work\connect\vo\enums\column\search\WaitCloseListColumn.class
com\cy\work\connect\vo\enums\WCReportCustomColumnUrlType.class
com\cy\work\connect\vo\SpecificRoleInquireDep.class
com\cy\work\connect\vo\enums\SignType.class
com\cy\work\connect\vo\converter\to\GroupInfo.class
com\cy\work\connect\vo\enums\WCFuncGroupBaseType.class
com\cy\work\connect\vo\WCReadReceipts.class
com\cy\work\connect\vo\WCRollbackHistory.class
com\cy\work\connect\vo\converter\to\ExecDepSids.class
com\cy\work\connect\vo\converter\to\ReplyRecordTo.class
com\cy\work\connect\vo\converter\WCReportCustomColumnUrlConverter.class
com\cy\work\connect\vo\converter\WCExceDepStatusConverter.class
com\cy\work\connect\vo\converter\WCStatusConverter.class
com\cy\work\connect\vo\utils\WorkConnectVOUtils.class
com\cy\work\connect\vo\converter\CategoryTagToConverter.class
com\cy\work\connect\vo\WCMenuTag.class
com\cy\work\connect\vo\enums\ExecDepCreateType.class
com\cy\work\connect\vo\enums\ManagerSingInfoType.class
com\cy\work\connect\vo\WCExecManagerSignInfo.class
com\cy\work\connect\vo\converter\to\ReadRecord.class
com\cy\work\connect\vo\WCGroupSetupPrivate.class
com\cy\work\connect\vo\WCTag.class
com\cy\work\connect\vo\WCFunItem.class
com\cy\work\connect\vo\converter\to\GroupInfoTo.class
com\cy\work\connect\vo\converter\to\UserDep.class
com\cy\work\connect\vo\SpecificRoleForwardDep.class
com\cy\work\connect\vo\WCTrace.class
com\cy\work\connect\vo\converter\ExecDepRecordToConverter.class
com\cy\work\connect\vo\converter\to\WCSids.class
com\cy\work\connect\vo\converter\to\RRcordTo.class
com\cy\work\connect\vo\converter\GroupInfoConverter.class
com\cy\work\connect\vo\converter\to\SpecificDepTo.class
com\cy\work\connect\vo\SimpleDateFormatThreadSafe.class
com\cy\work\connect\vo\WCHomepageFavorite.class
com\cy\work\connect\vo\enums\WorkType.class
com\cy\work\connect\vo\WCBasePersonAccessInfo.class
com\cy\work\connect\vo\converter\to\OtherBaseAccessViewDep.class
com\cy\work\connect\vo\WCMaster.class
com\cy\work\connect\vo\converter\WCSidsConverter.class
com\cy\work\connect\vo\enums\SimpleDateFormatEnum.class
com\cy\work\connect\vo\converter\InboxTypeConverter.class
com\cy\work\connect\vo\converter\ConfigValueConverter$1.class
com\cy\work\connect\vo\enums\column\search\ReadableDocsInquireColumn.class
com\cy\work\connect\vo\enums\TransReadStatus.class
com\cy\work\connect\vo\WCOpinionDescripeSetting.class
com\cy\work\connect\vo\enums\BpmStatus.class
com\cy\work\connect\vo\enums\WCLastModifySearchColumn.class
com\cy\work\connect\vo\converter\ReportPageConverter.class
com\cy\work\connect\vo\enums\WorkFunItemComponentType.class
com\cy\work\connect\vo\converter\ReadRecordConverter.class
com\cy\work\connect\vo\converter\to\UsersTo.class
com\cy\work\connect\vo\converter\WCDepTempletUseTypeConverter.class
com\cy\work\connect\vo\enums\WCTraceType.class
com\cy\work\connect\vo\SimpleDateFormatThreadSafe$2.class
com\cy\work\connect\vo\enums\WCSendTransSearchColumn.class
com\cy\work\connect\vo\converter\Json2IntListConverter$1.class
com\cy\work\connect\vo\converter\Json2IntListConverter.class
com\cy\work\connect\vo\converter\to\WCReportCustomColumnInfo.class
com\cy\work\connect\vo\converter\to\WCReportCustomColumnInfoTo.class
com\cy\work\connect\vo\enums\column\search\ApplicationDepInquireColumn.class
com\cy\work\connect\vo\WCExecDepSetting.class
com\cy\work\connect\vo\converter\to\ReportPageTo.class
com\cy\work\connect\vo\converter\AllTimeAccessPersonConverter.class
com\cy\work\connect\vo\enums\ForwardType.class
com\cy\work\connect\vo\enums\ActionType.class
com\cy\work\connect\vo\WCFunItemGroup.class
com\cy\work\connect\vo\enums\column\search\WorkingListColumn.class
com\cy\work\connect\vo\converter\TransTypeConverter.class
com\cy\work\connect\vo\enums\WorkParamEnum.class
com\cy\work\connect\vo\converter\to\ExecDepTo.class
com\cy\work\connect\vo\converter\ExecDepSidsConverter.class
com\cy\work\connect\vo\converter\to\ConfigValueTo.class
com\cy\work\connect\vo\WCAttachment.class
com\cy\work\connect\vo\enums\ConfigTempletType.class
com\cy\work\connect\vo\enums\column\search\ProcessListColumn.class
com\cy\work\connect\vo\WCMemoTrace.class
com\cy\work\connect\vo\converter\WCAlertTypeConverter.class
com\cy\work\connect\vo\WCTransDetail.class
com\cy\work\connect\vo\enums\TransType.class
com\cy\work\connect\vo\converter\FlowTypeConverter.class
com\cy\work\connect\vo\converter\UserDepConverter.class
com\cy\work\connect\vo\enums\SignActionType.class
com\cy\work\connect\vo\enums\RestFlowType.class
com\cy\work\connect\vo\converter\ConfigValueConverter.class
com\cy\work\connect\vo\enums\MemoTransType.class
com\cy\work\connect\vo\WCExecDepHistory.class
com\cy\work\connect\vo\enums\ExecDepType.class
com\cy\work\connect\vo\converter\ReplyRecordConverter.class
com\cy\work\connect\vo\WCTagTemplet.class
com\cy\work\connect\vo\converter\ForwardTypeConverter.class
com\cy\work\connect\vo\enums\column\search\CheckedListColumn.class
com\cy\work\connect\vo\converter\to\UserDepTo.class
com\cy\work\connect\vo\converter\WCReportCustomColumnInfoConverter.class
com\cy\work\connect\vo\enums\WCTagSearchColumn.class
com\cy\work\connect\vo\WCExceDep.class
com\cy\work\connect\vo\WCTransMaster.class
com\cy\work\connect\vo\converter\to\UserTo.class
com\cy\work\connect\vo\converter\to\LimitBaseAccessViewPerson.class
com\cy\work\connect\vo\WCCategoryTag.class
com\cy\work\connect\vo\converter\ConfigTempletTypeConverter.class
com\cy\work\connect\vo\WCMemoMaster.class
com\cy\work\connect\vo\WCTransSpecialPermission.class
com\cy\work\connect\vo\enums\column\search\WaitWorkReceiveListColumn.class
com\cy\work\connect\vo\enums\WCReadStatus.class
com\cy\work\connect\vo\SimpleDateFormatThreadSafe$3.class
com\cy\work\connect\vo\converter\to\CustomColumnDetailTo.class
com\cy\work\connect\vo\converter\TargetTypeConverter.class
com\cy\work\connect\vo\converter\WCTraceTypeConverter.class
com\cy\work\connect\vo\enums\WCWorkReportSearchColumn.class
com\cy\work\connect\vo\WCManagerSignInfoDetail.class
com\cy\work\connect\vo\converter\to\AllTimeAccessPerson.class
com\cy\work\connect\vo\WCMemoCategory.class
com\cy\work\connect\vo\enums\column\search\WaitWorkListColumn.class
com\cy\work\connect\vo\WCExecRollBackHistory.class
com\cy\work\connect\vo\WCMemoAttachment.class
com\cy\work\connect\vo\WorkParam.class
com\cy\work\connect\vo\converter\to\ReplyRecord.class
com\cy\work\connect\vo\WCFavorite.class
com\cy\work\connect\vo\enums\FlowType.class
com\cy\work\connect\vo\WCManagerSignInfo.class
com\cy\work\connect\vo\enums\column\search\OrderListColumn.class
com\cy\work\connect\vo\converter\to\WCSidTo.class
com\cy\work\connect\vo\converter\WCTagTypeConverter.class
com\cy\work\connect\vo\WCSetPermission.class
com\cy\work\connect\vo\WCReportCustomColumn.class
com\cy\work\connect\vo\converter\WCMemoStatusConverter.class
com\cy\work\connect\vo\enums\column\search\FavoriteSearchColumn.class
com\cy\work\connect\vo\enums\WCTagType.class
com\cy\work\connect\vo\enums\WCMemoStatus.class
com\cy\work\connect\vo\converter\LimitBaseAccessViewPersonConverter.class
com\cy\work\connect\vo\WCAgainTrace.class
com\cy\work\connect\vo\converter\ForwardDepToConverter.class
com\cy\work\connect\vo\converter\ExceDepTypeConverter.class
com\cy\work\connect\vo\converter\SignTypeConverter.class
com\cy\work\connect\vo\converter\UsersAllowNullConverter.class
com\cy\work\connect\vo\converter\to\OtherBaseAccessViewPerson.class
com\cy\work\connect\vo\converter\to\RRecord.class
com\cy\work\connect\vo\converter\Json2LongListConverter.class
com\cy\work\connect\vo\converter\to\ExecDepSidTo.class
com\cy\work\connect\vo\converter\OtherBaseAccessViewDepConverter.class
com\cy\work\connect\vo\converter\to\DepTo.class
com\cy\work\connect\vo\converter\Json2LongListConverter$1.class
com\cy\work\connect\vo\enums\Column.class
com\cy\work\connect\vo\enums\column\search\RollBackListColumn.class
