C:\Users\Joy_Wang\IdeaProjects\work-connect-pom\work-connect-rest\src\main\java\com\cy\work\connect\rest\config\RestConfig.java
C:\Users\Joy_Wang\IdeaProjects\work-connect-pom\work-connect-rest\src\main\java\com\cy\work\connect\rest\config\JpaConfig.java
C:\Users\Joy_Wang\IdeaProjects\work-connect-pom\work-connect-rest\src\main\java\com\cy\work\connect\rest\controller\process\WCCacheClearServlet.java
C:\Users\Joy_Wang\IdeaProjects\work-connect-pom\work-connect-rest\src\main\java\com\cy\work\connect\rest\config\WCProperties.java
C:\Users\Joy_Wang\IdeaProjects\work-connect-pom\work-connect-rest\src\main\java\com\cy\work\connect\rest\controller\alert\WCAlertController.java
C:\Users\Joy_Wang\IdeaProjects\work-connect-pom\work-connect-rest\src\main\java\com\cy\work\connect\rest\config\StartupAware.java
C:\Users\Joy_Wang\IdeaProjects\work-connect-pom\work-connect-rest\src\main\java\com\cy\work\connect\rest\controller\todo\WCTodoController.java
C:\Users\Joy_Wang\IdeaProjects\work-connect-pom\work-connect-rest\src\main\java\com\cy\work\connect\rest\config\Swagger2Config.java
C:\Users\Joy_Wang\IdeaProjects\work-connect-pom\work-connect-rest\src\main\java\com\cy\work\connect\rest\util\WCRestUtil.java
C:\Users\Joy_Wang\IdeaProjects\work-connect-pom\work-connect-rest\src\main\java\com\cy\work\connect\rest\controller\process\WCResponseCheckSearvlet.java
C:\Users\Joy_Wang\IdeaProjects\work-connect-pom\work-connect-rest\src\main\java\com\cy\work\connect\rest\controller\process\WCCacheClearController.java
C:\Users\Joy_Wang\IdeaProjects\work-connect-pom\work-connect-rest\src\main\java\com\cy\work\connect\rest\controller\process\WorkConnectSign.java
C:\Users\Joy_Wang\IdeaProjects\work-connect-pom\work-connect-rest\src\main\java\com\cy\work\connect\rest\controller\process\WCResponseCheckController.java
C:\Users\Joy_Wang\IdeaProjects\work-connect-pom\work-connect-rest\src\main\java\com\cy\work\connect\rest\controller\check\WCCheckController.java
